111`:wq
`:wq111`:wq
`:wq111`:wq
`:wq111`:wq
`:wq111`:wq
`:wq111`:wq
`:wq111`:wq
`:wq111`:wq
`:wq111`:wq
`:wq111`:wq
`:wq111`:wq
`:wq111`:wq
`:wq111`:wq
`:wq111`:wq
`:wq111`:wq
`:wq111`:wq
`:wq111`:wq
`:wq111`:wq
`:wq111`:wq
`:wq111`:wq
`:wq111`:wq
`:wq111`:wq
`:wq111`:wq
`:wq111`:wq
`:wq111`:wq
`:wq111`:wq
`:wq111`:wq
`:wq111`:wq
`:wq111`:wq
`:wq111`:wq
`:wq111`:wq
`:wq111`:wq
`:wq111`:wq
`:wq111`:wq
`:wq111`:wq
`:wq111`:wq
`:wq111`:wq
`:wq111`:wq
`:wq111`:wq
`:wq111`:wq
`:wq111`:wq
`:wq111`:wq
`:wq111`:wq
`:wq111`:wq
`:wq111`:wq
`:wq111`:wq
`:wq111`:wq
`:wq111`:wq
`:wq111`:wq
`:wq111`:wq
`:wq111`:wq
`:wq111`:wq
`:wq111`:wq
`:wq111`:wq
`:wq111`:wq
`:wq111`:wq
`:wq111`:wq
`:wq111`:wq
`:wq111`:wq
`:wq111`:wq
`:wq111`:wq
`:wq111`:wq
`:wq111`:wq
`:wq111`:wq
`:wq111`:wq
`:wq111`:wq
`:wq111`:wq
`:wq111`:wq
`:wq111`:wq
`:wq111`:wq
`:wq111`:wq
`:wq111`:wq
`:wq111`:wq
`:wq111`:wq
`:wq111`:wq
`:wq111`:wq
`:wq111`:wq
`:wq111`:wq
`:wq111`:wq
`:wq111`:wq
`:wq111`:wq
`:wq111`:wq
`:wq111`:wq
`:wq111`:wq
`:wq111`:wq
`:wq111`:wq
`:wq111`:wq
`:wq111`:wq
`:wq111`:wq
`:wq111`:wq
`:wq111`:wq
`:wq111`:wq
`:wq111`:wq
`:wq111`:wq
`:wq111`:wq
`:wq111`:wq
`:wq111`:wq
`:wq111`:wq
`:wq111`:wq
`:wq111`:wq
`:wq111`:wq
`:wq111`:wq
`:wq111`:wq
`:wq111`:wq
`:wq111`:wq
`:wq111`:wq
`:wq111`:wq
`:wq111`:wq
`:wq111`:wq
`:wq111`:wq
`:wq111`:wq
`:wq
